module gitlab.com/gnourt12/k8s-runner

require (
	github.com/labstack/echo v3.3.10+incompatible
	github.com/labstack/gommon v0.3.0 // indirect
	golang.org/x/crypto v0.0.0-20200302210943-78000ba7a073 // indirect
)
